File #, Time(ms)
1,621
2,1083
3,366
4,1117
5,529
6,686
7,699
8,731
9,729
10,805
11,1320
12,573
13,685
14,414
15,466
16,562
17,464
18,366
19,478
20,701
21,466
22,382
23,379
24,452
25,412
26,367
27,367
28,372
29,416
30,412
31,410
32,313
33,402
34,412
35,315
36,315
37,315
38,316
39,385
40,675
41,419
42,454
43,411
44,690
45,311
46,414
47,429
48,316
49,314
50,420
51,694
52,721
53,742
54,716
55,739
56,716
57,729
58,1163
59,406
60,389
61,710
62,715
63,1281
64,405
65,773
66,684
67,738
68,1070
69,400
70,402
71,400
72,693
73,714
74,404
75,407
76,308
77,462
78,406
79,297
80,779
81,933
82,532
83,747
84,405
85,403
86,306
87,396
88,409
89,685
90,347
91,299
92,409
93,720
94,307
95,299
96,303
97,317
98,1003
99,739
100,689
